COMMERCIAL
FARM
LAND
RESIDENTIAL

101 600000.0
105 30000.0
106 200000.0
107 1040000.0
110 250000.0
COMMERCIAL
FARM
LAND
RESIDENTIAL

101 600000.0
105 30000.0
106 200000.0
107 1040000.0
110 250000.0
COMMERCIAL
FARM
LAND
RESIDENTIAL

101 600000.0
105 30000.0
106 200000.0
107 1040000.0
110 250000.0
COMMERCIAL
FARM
LAND
RESIDENTIAL

101 600000.0
105 30000.0
106 200000.0
107 1080000.0
110 250000.0
COMMERCIAL
FARM
LAND
RESIDENTIAL

101 600000.0
105 30000.0
106 200000.0
107 1080000.0
110 250000.0
COMMERCIAL
FARM
LAND
RESIDENTIAL

101 600000.0
105 30000.0
106 200000.0
107 1080000.0
110 250000.0
COMMERCIAL
FARM
LAND
RESIDENTIAL

101 600000.0
105 30000.0
106 200000.0
107 1080000.0
110 250000.0
COMMERCIAL
FARM
LAND
RESIDENTIAL

101 600000.0
105 30000.0
106 200000.0
107 1080000.0
110 250000.0
COMMERCIAL
FARM
LAND
RESIDENTIAL

101 600000.0
105 30000.0
106 200000.0
107 1080000.0
110 250000.0
COMMERCIAL
FARM
LAND
RESIDENTIAL

101 600000.0
105 30000.0
106 200000.0
107 1080000.0
110 250000.0
COMMERCIAL
FARM
LAND
RESIDENTIAL

101 600000.0
105 30000.0
106 200000.0
107 1080000.0
110 250000.0
COMMERCIAL
FARM
LAND
RESIDENTIAL

101 600000.0
105 30000.0
106 200000.0
107 1080000.0
110 250000.0
COMMERCIAL
FARM
LAND
RESIDENTIAL

101 600000.0
105 30000.0
106 200000.0
107 1080000.0
110 250000.0
COMMERCIAL
FARM
LAND
RESIDENTIAL

101 600000.0
105 30000.0
106 200000.0
107 1080000.0
110 250000.0
